{
  "moduleInfo":{
    "moduleName":"PDPModule",
    "moduleID":"PDPModuleID",
    "moduleVersion":"1.0",
    "role":"Discovery",
    "storeID":"StoreID",
    "moduleAddress":"com.myntra.sof.PDPModule.PDPModuleID"
  },
  "ebConfig":{

    "port":{
      "portNo":"5701",
      "portCount":"10000",
      "autoIncrement":"true"
    },
    "bridgeInfo":{
      "enabled":"true",
      "bridgePortNo":"7000",
      "inBoundAddress":"com.myntra.sof.*",
      "outBoundAddress":"com.myntra.sof.*"
    },
    "tcpIp":{
      "enabled":"true",
      "interface":"127.0.0.1"
    },
    "interfaces":{
      "enabled":"true",
      "interface":"127.0.0.1"
    },
    "multicast":{
      "enabled":"false",
      "group":"127.0.0.1",
      "port":"54327"
    },
    "security":{
      "sslFlag":"false",
      "jksPath":"keystore.jks",
      "password":"wibble"
    }

  },

  "ebAgentInfo":{
    "agentAddress":"com.myntra.sof.agent1",
    "hcMsg":"healthcheck",
    "getModuleIDMsg":"getModuleID",
    "getModuleNameMsg":"getModuleName",
    "setModuleIDMsg":"setModuleID",
    "setModuleNameMsg":"setModuleName"
  },
  "ebModuleEndpoints":{
    "pdpBaseAddr":"com.myntra.sof.pdp"
  },
  "mqttServerInfo":{
    "mqttPort":"1833",
    "mqttHost":"10.50.66.83",
    "tagTopic":"sof.myntra.pdp.rfidmodule"
  },
  "httpServerInfo":{
    "serverURL":"http://10.50.66.83:8082",
    "tagPostEndPoint":"/rfid-detected"
  },
  "AppInfo":{
    "pdpAppURL":"https://myntwebstatic.blob.core.windows.net/sof/pdp-app",
    "ebAddress":"com.myntra.sof.pdp-app"
  }
}